{
  "share-providers": {
    "facebook": true,
    "twitter": true,
    "email": true
  },
  "related-articles": {
    "Articles": [
      {
        "title": "Visit the site",
        "url": "https://tinhouse.coffee",
        "image": "https://dropinn.net/images/content/tinhouse/tinhouse-portadown-coffee-dessert-window.jpg"
      }
    ]
  }
}