<?xml version="1.0" encoding="utf-8"?>
<!-- Generator: Adobe Illustrator 19.2.0, SVG Export Plug-In . SVG Version: 6.00 Build 0)  -->
<svg version="1.1" id="Layer_1" xmlns="http://www.w3.org/2000/svg" xmlns:xlink="http://www.w3.org/1999/xlink" x="0px" y="0px"
	 viewBox="0 0 238.1 193.9" style="enable-background:new 0 0 238.1 193.9;" xml:space="preserve">
<style type="text/css">
	.st0{opacity:0.66;}
	.st1{fill:#555F63;}
</style>
<g class="st0">
	<path class="st1" d="M193.2,30.6c-18.5-19.3-44-30.5-70.7-30.6C95.3-0.2,69.3,11.2,50.7,30.8c-1.9,2.1,2.5,3.9,4.1,2.3
		c17.5-18.4,41.5-29.3,67-29.5c25.7-0.2,50,10.7,67.7,29.2C191,34.4,195.4,32.9,193.2,30.6L193.2,30.6z"/>
	<path class="st1" d="M218.2,112.9c1.7-10.7,1.8-21.4,0.1-32.2c-0.3-2-2.8-2.4-4.2-1.1c-5.7,5.5-11.6,10.5-17.9,15.3
		c-2.5,2,0.1,5.2,2.5,3.4c6.6-5,12.9-10.3,18.9-16.1c-1.4-0.4-2.8-0.7-4.2-1.1c1.6,10.3,1.7,20.7,0.1,31.1
		C213,115.3,217.8,115.5,218.2,112.9L218.2,112.9z"/>
	<path class="st1" d="M41.6,95c-4.5-3.4-8.9-7-13.2-10.8c-0.6-0.6-2.2-1.5-2.4,0c-0.8,7.7-0.8,15.3,0,23c0.2,1.6,3.9,4.5,3.6,1.6
		c-0.8-7.4-0.8-14.7,0-22.1c-0.8,0-1.6,0-2.4,0c4.6,4,9.3,7.9,14.2,11.6C44,100.3,43.1,96.1,41.6,95L41.6,95z"/>
	<path class="st1" d="M50.3,161.8c18.5,19.9,44.2,31.9,71.5,32.1c27.4,0.2,53.6-11.3,72.2-31.3c1.5-1.6-1-3.6-2.4-3.8
		c-11.5-1.3-22.7-3.8-33.8-7c-6.1-1.7-12.1-3.7-18.1-5.7c-3.3-1.2-6.6-2.4-9.8-3.6c-3-1.2-6.8-3.6-10-4c-1.9-0.2-3.6,1-5.2,1.7
		c-3.7,1.5-7.4,3-11.2,4.4c-6,2.2-12.1,4.3-18.2,6.2c-11.3,3.4-22.7,6.2-34.3,8c-2.8,0.4-0.2,4.6,2.1,4.2
		c23.6-3.6,46.4-11.3,68.3-20.4c-0.7,0-1.5-0.1-2.2-0.1c23.5,9.7,48.1,17.8,73.5,20.8c-0.8-1.3-1.6-2.5-2.4-3.8
		c-17.5,18.8-42,30-67.8,30.2c-26.1,0.2-51.1-10.7-68.8-29.8C51.7,157.8,48.1,159.4,50.3,161.8z"/>
	<path class="st1" d="M236.2,41.2c-8-15.5-32-13.3-46.2-11.6c-1.5,0.2-0.3,2.6,0.1,3.1c12.4,13.4,20.5,29.7,23.7,47.6
		c0.2,1.1,2.3,3.9,3.6,2.6c9.7-9.5,25.6-26,19.1-41.1c-0.8-1.9-4.9-3.3-3.6-0.3c5.8,13.4-10.4,29.4-18.7,37.5
		c1.2,0.9,2.4,1.7,3.6,2.6c-3.4-19.1-12.1-36.7-25.3-50.9c0,1,0.1,2,0.1,3.1c11-1.3,34.1-4.2,40.6,8.3
		C234.4,44.4,237.8,44.2,236.2,41.2z"/>
	<path class="st1" d="M2.2,152.2c8.3,16,35.4,12.2,49.6,10.2c1-0.1,3.5-1.4,2.3-2.7c-13.2-14.7-21.5-32.8-24-52.5
		c-0.2-1.6-3.3-0.6-4,0c-8,7.4-16,15.4-21.2,25C1.7,138.3-0.7,145.6,2.2,152.2c0.8,1.9,5.5,0.2,4.7-1.6c-2.7-6.2-0.5-12.7,2.6-18.3
		c4.9-9,12.4-16.6,19.9-23.4c-1.3,0-2.7,0-4,0c2.5,19.9,11,38.3,24.4,53.2c0.8-0.9,1.5-1.8,2.3-2.7c-9.6,1.4-19.7,2.3-29.4,0.6
		c-6.1-1.1-12.8-3.4-15.8-9.3C6,148.8,1.3,150.5,2.2,152.2z"/>
	<path class="st1" d="M25.7,107.1c1.4,11.1,4.5,21.8,9.4,31.8c2.3,4.7,5,9.1,8,13.4c2,2.9,5.6,9.4,9.2,10.5c3.2,1,9.7-1.4,12.9-2.1
		c5.9-1.3,11.7-2.7,17.5-4.4c13.1-3.8,25.9-8.4,38.5-13.7c1.8-0.7-0.8-3.3-1.6-3.7c-27.4-11.5-53.9-25.7-77.7-43.6
		c-2.7-2-2.8,1.4-0.9,2.9c24.1,18.1,51,32.6,78.8,44.2c-0.5-1.2-1.1-2.4-1.6-3.7c-21.6,9-44.2,16.6-67.4,20.2c0.8,0.5,1.7,1,2.5,1.4
		c-13-14.4-21.1-32.1-23.5-51.3C29.7,107.2,25.4,104.7,25.7,107.1L25.7,107.1z"/>
	<path class="st1" d="M190.2,162c13.2,1.4,33.9,2.9,43.7-8.5c11.5-13.3-7-32.8-15.8-41.8c-0.7-0.7-4.5,0.4-4.6,1.4
		c-3.2,18-11.2,34.6-23.5,48.2c-1,1.1,3.6,0.4,4.4-0.5c12.4-13.8,20.7-30.4,23.9-48.7c-1.5,0.5-3.1,0.9-4.6,1.4
		c8.1,8.2,22.5,22.9,18.4,36.1c-4.4,14.1-26.7,11.6-37.8,10.5C192.9,159.9,188.9,161.9,190.2,162z"/>
	<path class="st1" d="M1.3,39.8c-2.9,6.8-0.6,14,2.8,20.1c5.5,10.1,14,18.6,22.5,26.2c0.5,0.5,3.2,1.9,3.4,0.4
		c2.6-20,11.2-38.4,24.8-53.2c1.1-1.2-2.4-2.9-3.2-3c-10.9-1.7-22.5-2.9-33.4-0.8C11.6,30.8,4.6,33.4,1.3,39.8
		c-0.8,1.5,3.5,4.1,4.2,2.7c3.3-6.3,10.3-8.7,16.9-9.8c10.3-1.7,21-0.6,31.3,1c-1.1-1-2.1-2-3.2-3c-13.8,15-22.4,33.6-25,53.8
		c1.1,0.1,2.3,0.3,3.4,0.4C21.4,78,13.8,70.4,8.7,61.5c-3.3-5.7-5.9-12.7-3.1-19.1C6.3,40.8,2,38.3,1.3,39.8z"/>
	<path class="st1" d="M195.8,94.8c-23.6,17.9-49.9,32.1-77.2,43.6c-2.1,0.9-1.3,3.5,0.5,4.2c22,9.1,45.1,16.8,68.8,20.1
		c5.3,0.7,5.9,0.3,9.4-3.9c3.6-4.3,6.7-8.9,9.5-13.7c5.6-9.8,9.4-20.5,11.3-31.6c0.5-2.7-4.1-4.7-4.6-1.8
		c-3.2,18-11.2,34.3-23.4,47.9c0.7-0.3,1.4-0.6,2.1-0.8c-24.8-2.9-48.8-10.8-71.7-20.3c0.2,1.4,0.3,2.8,0.5,4.2
		c27.6-11.7,54.2-26.1,78.2-44.2C201.4,96.7,198,93.1,195.8,94.8L195.8,94.8z"/>
</g>
</svg>
